%YAML 1.1
%TAG !u! tag:unity3d.com,2011:
--- !u!1 &1069915218763791327
GameObject:
  m_ObjectHideFlags: 0
  m_CorrespondingSourceObject: {fileID: 0}
  m_PrefabInstance: {fileID: 0}
  m_PrefabAsset: {fileID: 0}
  serializedVersion: 6
  m_Component:
  - component: {fileID: 1069915218763791321}
  - component: {fileID: 1069915218763791320}
  - component: {fileID: 1069915218763791322}
  - component: {fileID: 1069915218763791323}
  m_Layer: 0
  m_Name: A_
  m_TagString: Untagged
  m_Icon: {fileID: 0}
  m_NavMeshLayer: 0
  m_StaticEditorFlags: 0
  m_IsActive: 1
--- !u!4 &1069915218763791321
Transform:
  m_ObjectHideFlags: 0
  m_CorrespondingSourceObject: {fileID: 0}
  m_PrefabInstance: {fileID: 0}
  m_PrefabAsset: {fileID: 0}
  m_GameObject: {fileID: 1069915218763791327}
  m_LocalRotation: {x: 0, y: 0, z: 0, w: 1}
  m_LocalPosition: {x: 0, y: 0, z: 0}
  m_LocalScale: {x: 1, y: 1, z: 1}
  m_Children: []
  m_Father: {fileID: 0}
  m_RootOrder: 0
  m_LocalEulerAnglesHint: {x: 0, y: 0, z: 0}
--- !u!114 &1069915218763791320
MonoBehaviour:
  m_ObjectHideFlags: 0
  m_CorrespondingSourceObject: {fileID: 0}
  m_PrefabInstance: {fileID: 0}
  m_PrefabAsset: {fileID: 0}
  m_GameObject: {fileID: 1069915218763791327}
  m_Enabled: 1
  m_EditorHideFlags: 0
  m_Script: {fileID: 11500000, guid: 71865b7c320df6c44a07491dfc7e2e9d, type: 3}
  m_Name: 
  m_EditorClassIdentifier: 
  unWalkableMask:
    serializedVersion: 2
    m_Bits: 256
  gridWorldSize: {x: 23, y: 11}
  nodeRadius: 0.5
  Ailist: []
--- !u!114 &1069915218763791322
MonoBehaviour:
  m_ObjectHideFlags: 0
  m_CorrespondingSourceObject: {fileID: 0}
  m_PrefabInstance: {fileID: 0}
  m_PrefabAsset: {fileID: 0}
  m_GameObject: {fileID: 1069915218763791327}
  m_Enabled: 1
  m_EditorHideFlags: 0
  m_Script: {fileID: 11500000, guid: fb66cfd43af0e9a43b12c25968abff97, type: 3}
  m_Name: 
  m_EditorClassIdentifier: 
--- !u!114 &1069915218763791323
MonoBehaviour:
  m_ObjectHideFlags: 0
  m_CorrespondingSourceObject: {fileID: 0}
  m_PrefabInstance: {fileID: 0}
  m_PrefabAsset: {fileID: 0}
  m_GameObject: {fileID: 1069915218763791327}
  m_Enabled: 1
  m_EditorHideFlags: 0
  m_Script: {fileID: 11500000, guid: 8160e4a8ea2846d4f883a2ed03eab3ae, type: 3}
  m_Name: 
  m_EditorClassIdentifier: 
